{
    "_id" : 2,
    "firstName" : "Jan",
    "lastName" : "Kowalski",
    "phone" : "111 760 760",
    "email" : "jan_kowalski@rmail.pl",
    "created_date" : "2021-02-16",
    "purchase" : ["o8", "o9", "o10", "o11", "o12"]
}