4
	a)ls section*
	b)ls section[123]
	c) ls *intro*
	d) ls [13]*
6
	a) sort numer > lista_telefonow
	b) cat permdemos.c |tr  -t '{}'  '()' | tr -t '[]' '()' 
	c) cat czesc1 czesc2 > ksiazka

12
	a) echo "   " > 111.txt

13)
	a) touch dasd\ sss && rm "dasd sss"
	
